<?xml version="1.0" encoding="utf-8"?>
<!-- Generator: Adobe Illustrator 21.0.0, SVG Export Plug-In . SVG Version: 6.00 Build 0)  -->
<svg version="1.1" id="Laag_1" xmlns="http://www.w3.org/2000/svg" xmlns:xlink="http://www.w3.org/1999/xlink" x="0px" y="0px"
	 viewBox="0 0 1240 338" style="enable-background:new 0 0 1240 338;" xml:space="preserve">
<style type="text/css">
	.st0{opacity:0;fill:#F2F2F2;}
	.st1{fill:#DD0000;}
</style>
<rect transform="matrix(-1 -1.224647e-16 1.224647e-16 -1 1240 338)" class="st0" width="1240" height="338"/>
<polygon class="st1" points="0,0 0,338 558.4,338 681.6,0 "/>
<polygon class="st1" points="1178,0 1054.8,338 1178,338 1240,338 1240,0 "/>
</svg>
